,Unique visitors,Number of visits,Pages,Hits,Bandwidth
2009M6,2280.00,4134.00,44638.00,108437.00,1.38
2009M7,3409.00,7022.00,61293.00,164378.00,1.51
2009M8,3286.00,6881.00,64691.00,158253.00,1.45
2009M9,3956.00,8106.00,89412.00,185259.00,3.38
2009M10,4197.00,9045.00,123446.00,231568.00,4.56
2009M11,4253.00,8892.00,78018.00,189915.00,1.91
2009M12,4691.00,9358.00,78596.00,181456.00,7.69
2010M1,5602.00,11948.00,111696.00,294204.00,26.08
2010M2,5585.00,12011.00,122147.00,344091.00,26.89
2010M3,6291.00,13331.00,133807.00,333573.00,26.57
2010M4,6206.00,12768.00,120671.00,310731.00,18.1
2010M5,6660.00,13913.00,138453.00,346633.00,18.09
2010M6,6209.00,13582.00,130557.00,314953.00,17.43
2010M7,6537.00,14269.00,161545.00,368504.00,17.95
2010M8,7343.00,14460.00,137497.00,340122.00,17.84
2010M9,7016.00,13969.00,149171.00,341354.00,17.88
2010M10,7188.00,14769.00,160282.00,349827.00,18.59
2010M11,8471.00,17603.00,146558.00,370266.00,19.59
2010M12,9302.00,17884.00,142210.00,342275.00,16.89
2011M1,9126.00,17574.00,179077.00,418115.00,20.58
2011M2,10234.00,20517.00,201121.00,467893.00,32.64
2011M3,10307.00,22015.00,187048.00,498685.00,35.52
2011M4,9822.00,20327.00,184763.00,443993.00,25.91
2011M5,10190.00,20944.00,200875.00,485236.00,31.79
2011M6,9418.00,19545.00,194043.00,519319.00,31.73
2011M7,9003.00,18405.00,183334.00,420609.00,23.97
2011M8,8477.00,17896.00,144296.00,357331.00,23.54
2011M9,9405.00,19500.00,167414.00,386306.00,27.66
2011M10,11646.00,23997.00,177207.00,438992.00,47.41
2011M11,11569.00,24781.00,196517.00,464271.00,47.54
2011M12,10271.00,22306.00,199348.00,400444.00,42.29
2012M1,10432.00,21919.00,265438.00,500998.00,41.68
2012M2,11332.00,23071.00,191453.00,460207.00,55.87
2012M3,11939.00,24004.00,197520.00,500261.00,49.4
2012M4,12006.00,22831.00,247621.00,527943.00,58.92
2012M5,11783.00,23396.00,177545.00,437259.00,43.15
2012M6,10942.00,23745.00,193461.00,440064.00,37.74
2012M7,10804.00,24487.00,182655.00,425207.00,30.31
2012M8,10773.00,20958.00,151564.00,370288.00,27.33
2012M9,12474.00,23161.00,201959.00,462055.00,36.27
2012M10,15878.00,30128.00,242168.00,552012.00,64.99
2012M11,16971.00,33108.00,277104.00,588290.00,65.02
2012M12,18728.00,41117.00,307480.00,567182.00,54.55
2013M1,21700.00,49408.00,357344.00,650626.00,57.51
2013M2,24458.00,66526.00,399323.00,696595.00,62.03
2013M3,28779.00,78891.00,522564.00,864005.00,61.49
2013M4,31586.00,101562.00,747831.00,1122279.00,70.42
2013M5,38309.00,133167.00,864373.00,1199197.00,76.23
2013M6,34493.00,115301.00,1126507.00,1416463.00,65.66
2013M7,33444.00,102643.00,1048358.00,1315877.00,53.07
2013M8,31493.00,99928.00,1160827.00,1418044.00,55.16
2013M9,34651.00,124248.00,1116429.00,1426483.00,76.8
2013M10,34254.00,104434.00,822910.00,1177837.00,87.02
2013M11,33391.00,113630.00,975509.00,1319271.00,77.71
2013M12,41125.00,146539.00,2472568.00,2790238.00,88.21
2014M1,47677.00,218111.00,2841086.00,3183005.00,107.11
2014M2,50985.00,252310.00,1606154.00,1956376.00,85.85
2014M3,56629.00,292159.00,1463322.00,1848093.00,99.74
2014M4,59027.00,276198.00,1475267.00,1816761.00,80.77
2014M5,61706.00,291914.00,2001073.00,2371417.00,82.81
2014M6,59317.00,233116.00,2336142.00,2630019.00,101.99
2014M7,58732.00,284264.00,2924567.00,3225727.00,96.56
2014M8,61050.00,349623.00,2989709.00,3248180.00,102.42
2014M9,70873.00,465321.00,2881186.00,3156417.00,107.17
2014M10,69418.00,434746.00,2914309.00,3212130.00,124.01
2014M11,53023.00,203736.00,1405449.00,1700265.00,94.27
2014M12,43643.00,160468.00,897419.00,1172333.00,82.75
2015M1,41653.00,146604.00,627384.00,922153.00,89.26
2015M2,40449.00,134432.00,525158.00,818640.00,82.24
2015M3,41680.00,165029.00,743115.00,1078193.00,84.79
2015M4,38121.00,140973.00,794247.00,1129220.00,85.26
2015M5,36709.00,120998.00,591299.00,930145.00,71.11
2015M6,38200.00,122731.00,588180.00,915984.00,68.14
2015M7,33729.00,113609.00,543974.00,839717.00,53.57
2015M8,36097.00,120637.00,523429.00,822645.00,60.7
2015M9,45902.00,178519.00,612955.00,922341.00,79.02
2015M10,40917.00,136190.00,516790.00,849617.00,81.57